digraph dbml {
      rankdir=LR;
      graph [fontname="helvetica", fontsize=32, fontcolor="#29235c", bgcolor="transparent"];
      node [penwidth=0, margin=0, fontname="helvetica", fontsize=32, fontcolor="#29235c"];
      edge [fontname="helvetica", fontsize=32, fontcolor="#29235c", color="#29235c"];

      
      
      
      "customers" [id="customers";label=<<TABLE BORDER="2" COLOR="#29235c" CELLBORDER="1" CELLSPACING="0" CELLPADDING="10" >
      <TR><TD PORT="f0" WIDTH="150" BGCOLOR="#1d71b8"><font color="#ffffff"><B>       customers       </B></font></TD></TR>
<TR><TD ALIGN="left" PORT="f1" BGCOLOR="#e7e2dd">
      <TABLE CELLPADDING="0" CELLSPACING="0" BORDER="0">
        <TR>
          <TD ALIGN="LEFT">customer_id<FONT>    </FONT></TD>
          <TD ALIGN="RIGHT"><font><i>integer</i></font></TD>
        </TR>
      </TABLE>
    </TD></TR>
<TR><TD ALIGN="left" PORT="f2" BGCOLOR="#e7e2dd">
      <TABLE CELLPADDING="0" CELLSPACING="0" BORDER="0">
        <TR>
          <TD ALIGN="LEFT">zip_code<FONT>    </FONT></TD>
          <TD ALIGN="RIGHT"><font><i>object</i></font></TD>
        </TR>
      </TABLE>
    </TD></TR>
<TR><TD ALIGN="left" PORT="f3" BGCOLOR="#e7e2dd">
      <TABLE CELLPADDING="0" CELLSPACING="0" BORDER="0">
        <TR>
          <TD ALIGN="LEFT">join_date<FONT>    </FONT></TD>
          <TD ALIGN="RIGHT"><font><i>datetime64</i></font></TD>
        </TR>
      </TABLE>
    </TD></TR>
<TR><TD ALIGN="left" PORT="f4" BGCOLOR="#e7e2dd">
      <TABLE CELLPADDING="0" CELLSPACING="0" BORDER="0">
        <TR>
          <TD ALIGN="LEFT">date_of_birth<FONT>    </FONT></TD>
          <TD ALIGN="RIGHT"><font><i>datetime64</i></font></TD>
        </TR>
      </TABLE>
    </TD></TR>
    </TABLE>>];
"sessions" [id="sessions";label=<<TABLE BORDER="2" COLOR="#29235c" CELLBORDER="1" CELLSPACING="0" CELLPADDING="10" >
      <TR><TD PORT="f0" WIDTH="150" BGCOLOR="#1d71b8"><font color="#ffffff"><B>       sessions       </B></font></TD></TR>
<TR><TD ALIGN="left" PORT="f1" BGCOLOR="#e7e2dd">
      <TABLE CELLPADDING="0" CELLSPACING="0" BORDER="0">
        <TR>
          <TD ALIGN="LEFT">session_id<FONT>    </FONT></TD>
          <TD ALIGN="RIGHT"><font><i>integer</i></font></TD>
        </TR>
      </TABLE>
    </TD></TR>
<TR><TD ALIGN="left" PORT="f2" BGCOLOR="#e7e2dd">
      <TABLE CELLPADDING="0" CELLSPACING="0" BORDER="0">
        <TR>
          <TD ALIGN="LEFT">customer_id<FONT>    </FONT></TD>
          <TD ALIGN="RIGHT"><font><i>integer</i></font></TD>
        </TR>
      </TABLE>
    </TD></TR>
<TR><TD ALIGN="left" PORT="f3" BGCOLOR="#e7e2dd">
      <TABLE CELLPADDING="0" CELLSPACING="0" BORDER="0">
        <TR>
          <TD ALIGN="LEFT">device<FONT>    </FONT></TD>
          <TD ALIGN="RIGHT"><font><i>object</i></font></TD>
        </TR>
      </TABLE>
    </TD></TR>
<TR><TD ALIGN="left" PORT="f4" BGCOLOR="#e7e2dd">
      <TABLE CELLPADDING="0" CELLSPACING="0" BORDER="0">
        <TR>
          <TD ALIGN="LEFT">session_start<FONT>    </FONT></TD>
          <TD ALIGN="RIGHT"><font><i>datetime64</i></font></TD>
        </TR>
      </TABLE>
    </TD></TR>
    </TABLE>>];
"transactions" [id="transactions";label=<<TABLE BORDER="2" COLOR="#29235c" CELLBORDER="1" CELLSPACING="0" CELLPADDING="10" >
      <TR><TD PORT="f0" WIDTH="150" BGCOLOR="#1d71b8"><font color="#ffffff"><B>       transactions       </B></font></TD></TR>
<TR><TD ALIGN="left" PORT="f1" BGCOLOR="#e7e2dd">
      <TABLE CELLPADDING="0" CELLSPACING="0" BORDER="0">
        <TR>
          <TD ALIGN="LEFT">transaction_id<FONT>    </FONT></TD>
          <TD ALIGN="RIGHT"><font><i>integer</i></font></TD>
        </TR>
      </TABLE>
    </TD></TR>
<TR><TD ALIGN="left" PORT="f2" BGCOLOR="#e7e2dd">
      <TABLE CELLPADDING="0" CELLSPACING="0" BORDER="0">
        <TR>
          <TD ALIGN="LEFT">session_id<FONT>    </FONT></TD>
          <TD ALIGN="RIGHT"><font><i>integer</i></font></TD>
        </TR>
      </TABLE>
    </TD></TR>
<TR><TD ALIGN="left" PORT="f3" BGCOLOR="#e7e2dd">
      <TABLE CELLPADDING="0" CELLSPACING="0" BORDER="0">
        <TR>
          <TD ALIGN="LEFT">transaction_time<FONT>    </FONT></TD>
          <TD ALIGN="RIGHT"><font><i>datetime64</i></font></TD>
        </TR>
      </TABLE>
    </TD></TR>
<TR><TD ALIGN="left" PORT="f4" BGCOLOR="#e7e2dd">
      <TABLE CELLPADDING="0" CELLSPACING="0" BORDER="0">
        <TR>
          <TD ALIGN="LEFT">product_id<FONT>    </FONT></TD>
          <TD ALIGN="RIGHT"><font><i>integer</i></font></TD>
        </TR>
      </TABLE>
    </TD></TR>
<TR><TD ALIGN="left" PORT="f5" BGCOLOR="#e7e2dd">
      <TABLE CELLPADDING="0" CELLSPACING="0" BORDER="0">
        <TR>
          <TD ALIGN="LEFT">amount<FONT>    </FONT></TD>
          <TD ALIGN="RIGHT"><font><i>float64</i></font></TD>
        </TR>
      </TABLE>
    </TD></TR>
    </TABLE>>];
"products" [id="products";label=<<TABLE BORDER="2" COLOR="#29235c" CELLBORDER="1" CELLSPACING="0" CELLPADDING="10" >
      <TR><TD PORT="f0" WIDTH="150" BGCOLOR="#1d71b8"><font color="#ffffff"><B>       products       </B></font></TD></TR>
<TR><TD ALIGN="left" PORT="f1" BGCOLOR="#e7e2dd">
      <TABLE CELLPADDING="0" CELLSPACING="0" BORDER="0">
        <TR>
          <TD ALIGN="LEFT">product_id<FONT>    </FONT></TD>
          <TD ALIGN="RIGHT"><font><i>integer</i></font></TD>
        </TR>
      </TABLE>
    </TD></TR>
<TR><TD ALIGN="left" PORT="f2" BGCOLOR="#e7e2dd">
      <TABLE CELLPADDING="0" CELLSPACING="0" BORDER="0">
        <TR>
          <TD ALIGN="LEFT">brand<FONT>    </FONT></TD>
          <TD ALIGN="RIGHT"><font><i>object</i></font></TD>
        </TR>
      </TABLE>
    </TD></TR>
    </TABLE>>];
    
      "products":f0 -> "transactions":f0 [style=invis, weight=100, color=red]
    "products":f1:e -> "transactions":f4:w [penwidth=3, color="#29235c", headlabel="*", taillabel="1", arrowhead="normal", arrowtail="none"]
"sessions":f0 -> "transactions":f0 [style=invis, weight=100, color=red]
    "sessions":f1:e -> "transactions":f2:w [penwidth=3, color="#29235c", headlabel="*", taillabel="1", arrowhead="normal", arrowtail="none"]
"customers":f0 -> "sessions":f0 [style=invis, weight=100, color=red]
    "customers":f1:e -> "sessions":f2:w [penwidth=3, color="#29235c", headlabel="*", taillabel="1", arrowhead="normal", arrowtail="none"]
      
    }