customer_id,device,COUNT(transactions),MAX(transactions.amount),MEAN(transactions.amount),MIN(transactions.amount),SKEW(transactions.amount),STD(transactions.amount),SUM(transactions.amount),DAY(session_start),MONTH(session_start),WEEKDAY(session_start),YEAR(session_start),customers.zip_code,MODE(transactions.DAY(transaction_time)),MODE(transactions.MONTH(transaction_time)),MODE(transactions.WEEKDAY(transaction_time)),MODE(transactions.YEAR(transaction_time)),NUM_UNIQUE(transactions.DAY(transaction_time)),NUM_UNIQUE(transactions.MONTH(transaction_time)),NUM_UNIQUE(transactions.WEEKDAY(transaction_time)),NUM_UNIQUE(transactions.YEAR(transaction_time)),customers.COUNT(sessions),customers.MODE(sessions.device),customers.NUM_UNIQUE(sessions.device),customers.COUNT(transactions),customers.MAX(transactions.amount),customers.MEAN(transactions.amount),customers.MIN(transactions.amount),customers.SKEW(transactions.amount),customers.STD(transactions.amount),customers.SUM(transactions.amount),customers.DAY(date_of_birth),customers.DAY(join_date),customers.MONTH(date_of_birth),customers.MONTH(join_date),customers.WEEKDAY(date_of_birth),customers.WEEKDAY(join_date),customers.YEAR(date_of_birth),customers.YEAR(join_date)
2,desktop,16,141.66,76.813125,20.91,0.2954584806495609,41.60097590501934,1229.01,1,1,2,2014,13244,1,1,2,2014,1,1,1,1,7,desktop,3,93,146.81,77.42236559139785,8.73,0.09825929117597115,37.70517806666351,7200.28,18,15,8,4,0,6,1986,2012
5,mobile,10,135.25,74.696,9.32,-0.16055033518609557,45.89359122530678,746.96,1,1,2,2014,60091,1,1,2,2014,1,1,1,1,6,mobile,3,79,149.02,80.37544303797468,7.55,-0.02594138717423094,44.095630482915396,6349.66,28,17,7,7,5,5,1984,2010
4,mobile,15,147.73,88.6,8.7,-0.3240115847937969,46.24001560182633,1329.0,1,1,2,2014,60091,1,1,2,2014,1,1,1,1,8,mobile,3,109,149.95,80.07045871559633,5.73,-0.03634752841504069,45.06876506014881,8727.68,15,8,8,4,1,4,2006,2011
1,mobile,25,129.0,64.55720000000001,6.29,0.2343492688180583,40.18720479622007,1613.93,1,1,2,2014,60091,1,1,2,2014,1,1,1,1,8,mobile,3,126,139.43,71.63190476190476,5.81,0.019698446242644715,40.44205895281368,9025.62,18,17,7,4,0,6,1994,2011
4,mobile,11,139.2,70.63818181818182,7.43,0.3363813081150931,48.91866286361102,777.02,1,1,2,2014,60091,1,1,2,2014,1,1,1,1,8,mobile,3,109,149.95,80.07045871559633,5.73,-0.03634752841504069,45.06876506014881,8727.68,15,8,8,4,1,4,2006,2011
1,tablet,15,139.23,84.44,8.74,-0.13475408649983928,42.65475454992427,1266.6,1,1,2,2014,60091,1,1,2,2014,1,1,1,1,8,mobile,3,126,139.43,71.63190476190476,5.81,0.019698446242644715,40.44205895281368,9025.62,18,17,7,4,0,6,1994,2011
3,tablet,15,146.31,62.791333333333334,8.19,0.6184551860480929,47.26479675594673,941.87,1,1,2,2014,13244,1,1,2,2014,1,1,1,1,6,desktop,3,93,149.15,67.06043010752688,5.89,0.41822964797199824,43.683296253283444,6236.62,21,13,11,8,4,5,2003,2011
4,tablet,18,143.85,75.08111111111111,12.59,0.2006758861352653,44.213241946261896,1351.46,1,1,2,2014,60091,1,1,2,2014,1,1,1,1,8,mobile,3,109,149.95,80.07045871559633,5.73,-0.03634752841504069,45.06876506014881,8727.68,15,8,8,4,1,4,2006,2011
1,desktop,15,132.72,70.13533333333334,5.81,0.22633703084798376,46.90566518733816,1052.03,1,1,2,2014,60091,1,1,2,2014,1,1,1,1,8,mobile,3,126,139.43,71.63190476190476,5.81,0.019698446242644715,40.44205895281368,9025.62,18,17,7,4,0,6,1994,2011
2,tablet,15,142.44,88.04266666666666,15.8,-0.45519662458590404,39.88661384235974,1320.6399999999999,1,1,2,2014,13244,1,1,2,2014,1,1,1,1,7,desktop,3,93,146.81,77.42236559139785,8.73,0.09825929117597115,37.70517806666351,7200.28,18,15,8,4,0,6,1986,2012
4,mobile,15,147.86,77.05466666666668,27.02,0.3828678496286057,35.466283760911914,1155.8200000000002,1,1,2,2014,60091,1,1,2,2014,1,1,1,1,8,mobile,3,109,149.95,80.07045871559633,5.73,-0.03634752841504069,45.06876506014881,8727.68,15,8,8,4,1,4,2006,2011
4,desktop,10,143.96,77.168,8.37,-0.04491623535863452,50.28165532500121,771.6800000000001,1,1,2,2014,60091,1,1,2,2014,1,1,1,1,8,mobile,3,109,149.95,80.07045871559633,5.73,-0.03634752841504069,45.06876506014881,8727.68,15,8,8,4,1,4,2006,2011
4,mobile,12,142.28,78.96333333333334,5.73,-0.16946123077433622,54.293902944711,947.5600000000001,1,1,2,2014,60091,1,1,2,2014,1,1,1,1,8,mobile,3,109,149.95,80.07045871559633,5.73,-0.03634752841504069,45.06876506014881,8727.68,15,8,8,4,1,4,2006,2011
1,tablet,12,139.09,85.46916666666668,6.78,-0.8309753788528447,39.82524929062725,1025.63,1,1,2,2014,60091,1,1,2,2014,1,1,1,1,8,mobile,3,126,139.43,71.63190476190476,5.81,0.019698446242644715,40.44205895281368,9025.62,18,17,7,4,0,6,1994,2011
2,desktop,8,146.81,79.35499999999999,12.07,0.13001920402689576,47.93592032226832,634.8399999999999,1,1,2,2014,13244,1,1,2,2014,1,1,1,1,7,desktop,3,93,146.81,77.42236559139785,8.73,0.09825929117597115,37.70517806666351,7200.28,18,15,8,4,0,6,1986,2012
2,desktop,10,138.38,96.581,56.46,0.07488955232118473,27.839228297893282,965.8100000000001,1,1,2,2014,13244,1,1,2,2014,1,1,1,1,7,desktop,3,93,146.81,77.42236559139785,8.73,0.09825929117597115,37.70517806666351,7200.28,18,15,8,4,0,6,1986,2012
2,tablet,13,118.85,77.30461538461539,21.82,-0.3149179973856993,33.72503635169393,1004.96,1,1,2,2014,13244,1,1,2,2014,1,1,1,1,7,desktop,3,93,146.81,77.42236559139785,8.73,0.09825929117597115,37.70517806666351,7200.28,18,15,8,4,0,6,1986,2012
1,desktop,12,133.49,78.60666666666667,26.36,0.03235888330646033,36.04417853219305,943.28,1,1,2,2014,60091,1,1,2,2014,1,1,1,1,8,mobile,3,126,139.43,71.63190476190476,5.81,0.019698446242644715,40.44205895281368,9025.62,18,17,7,4,0,6,1994,2011
3,desktop,17,126.74,55.57941176470588,6.65,0.5315882420388274,36.167220219175725,944.85,1,1,2,2014,13244,1,1,2,2014,1,1,1,1,6,desktop,3,93,149.15,67.06043010752688,5.89,0.41822964797199824,43.683296253283444,6236.62,21,13,11,8,4,5,2003,2011
5,desktop,15,135.99,66.66666666666667,16.54,0.3740076786819975,37.88609444612829,1000.0,1,1,2,2014,60091,1,1,2,2014,1,1,1,1,6,mobile,3,79,149.02,80.37544303797468,7.55,-0.02594138717423094,44.095630482915396,6349.66,28,17,7,7,5,5,1984,2010
4,desktop,18,149.95,71.70222222222222,6.84,0.33297218973474035,47.68564213009485,1290.6399999999999,1,1,2,2014,60091,1,1,2,2014,1,1,1,1,8,mobile,3,109,149.95,80.07045871559633,5.73,-0.03634752841504069,45.06876506014881,8727.68,15,8,8,4,1,4,2006,2011
4,desktop,10,143.16,110.45,54.83,-0.7117439602441878,29.02642397693675,1104.5,1,1,2,2014,60091,1,1,2,2014,1,1,1,1,8,mobile,3,109,149.95,80.07045871559633,5.73,-0.03634752841504069,45.06876506014881,8727.68,15,8,8,4,1,4,2006,2011
3,desktop,11,128.26,80.83727272727273,20.06,-0.2894664672705142,35.70467983077543,889.21,1,1,2,2014,13244,1,1,2,2014,1,1,1,1,6,desktop,3,93,149.15,67.06043010752688,5.89,0.41822964797199824,43.683296253283444,6236.62,21,13,11,8,4,5,2003,2011
5,tablet,14,146.46,81.26571428571428,16.46,-0.061651555609317545,51.14924989513693,1137.72,1,1,2,2014,60091,1,1,2,2014,1,1,1,1,6,mobile,3,79,149.02,80.37544303797468,7.55,-0.02594138717423094,44.095630482915396,6349.66,28,17,7,7,5,5,1984,2010
3,desktop,16,149.15,63.878125,5.89,0.559346146130411,46.17273614284372,1022.05,1,1,2,2014,13244,1,1,2,2014,1,1,1,1,6,desktop,3,93,149.15,67.06043010752688,5.89,0.41822964797199824,43.683296253283444,6236.62,21,13,11,8,4,5,2003,2011
1,tablet,16,118.9,50.623125,7.08,0.6402515481241762,30.450261458921283,809.97,1,1,2,2014,60091,1,1,2,2014,1,1,1,1,8,mobile,3,126,139.43,71.63190476190476,5.81,0.019698446242644715,40.44205895281368,9025.62,18,17,7,4,0,6,1994,2011
1,mobile,15,139.43,59.606,5.91,0.3947448693571093,44.35410398148067,894.09,1,1,2,2014,60091,1,1,2,2014,1,1,1,1,8,mobile,3,126,139.43,71.63190476190476,5.81,0.019698446242644715,40.44205895281368,9025.62,18,17,7,4,0,6,1994,2011
5,mobile,18,149.02,94.48166666666667,15.97,-0.5390595714286818,48.55224332976738,1700.67,1,1,2,2014,60091,1,1,2,2014,1,1,1,1,6,mobile,3,79,149.02,80.37544303797468,7.55,-0.02594138717423094,44.095630482915396,6349.66,28,17,7,7,5,5,1984,2010
1,mobile,16,126.11,88.75562500000001,11.62,-1.038434120579306,32.324533710222845,1420.0900000000001,1,1,2,2014,60091,1,1,2,2014,1,1,1,1,8,mobile,3,126,139.43,71.63190476190476,5.81,0.019698446242644715,40.44205895281368,9025.62,18,17,7,4,0,6,1994,2011
5,desktop,14,144.53,87.22357142857143,7.55,-0.20057114444076607,39.658094063195655,1221.13,1,1,2,2014,60091,1,1,2,2014,1,1,1,1,6,mobile,3,79,149.02,80.37544303797468,7.55,-0.02594138717423094,44.095630482915396,6349.66,28,17,7,7,5,5,1984,2010
2,mobile,18,143.45,68.89944444444444,18.81,0.755710769036861,39.4143392050066,1240.19,1,1,2,2014,13244,1,1,2,2014,1,1,1,1,7,desktop,3,93,146.81,77.42236559139785,8.73,0.09825929117597115,37.70517806666351,7200.28,18,15,8,4,0,6,1986,2012
5,mobile,8,128.51,67.8975,20.65,0.6022093779000484,36.734681452662294,543.18,1,1,2,2014,60091,1,1,2,2014,1,1,1,1,6,mobile,3,79,149.02,80.37544303797468,7.55,-0.02594138717423094,44.095630482915396,6349.66,28,17,7,7,5,5,1984,2010
2,mobile,13,100.04,61.910000000000004,8.73,-0.7636030258225779,28.29841456100795,804.83,1,1,2,2014,13244,1,1,2,2014,1,1,1,1,7,desktop,3,93,146.81,77.42236559139785,8.73,0.09825929117597115,37.70517806666351,7200.28,18,15,8,4,0,6,1986,2012
3,desktop,18,148.86,82.10944444444445,14.48,0.011187113036814893,50.11012043750681,1477.97,1,1,2,2014,13244,1,1,2,2014,1,1,1,1,6,desktop,3,93,149.15,67.06043010752688,5.89,0.41822964797199824,43.683296253283444,6236.62,21,13,11,8,4,5,2003,2011
3,mobile,16,148.31,60.041875,10.94,0.8549761309588103,41.88034196274747,960.67,1,1,2,2014,13244,1,1,2,2014,1,1,1,1,6,desktop,3,93,149.15,67.06043010752688,5.89,0.41822964797199824,43.683296253283444,6236.62,21,13,11,8,4,5,2003,2011
